%YAML 1.1
%TAG !u! tag:unity3d.com,2011:
--- !u!114 &11400000
MonoBehaviour:
  m_ObjectHideFlags: 0
  m_CorrespondingSourceObject: {fileID: 0}
  m_PrefabInstance: {fileID: 0}
  m_PrefabAsset: {fileID: 0}
  m_GameObject: {fileID: 0}
  m_Enabled: 1
  m_EditorHideFlags: 0
  m_Script: {fileID: 11500000, guid: 67c968e54bb9bdf4b8280367cdf38ed5, type: 3}
  m_Name: Banner 3X6
  m_EditorClassIdentifier: 
  name: Banner 3x6
  description: 
  category: Banners
  dimensions: 3x6 ft
  icon: {fileID: 21300000, guid: 4f02934569feb184fbef33575ff8102f, type: 3}
  prefab: {fileID: 4104159686173703548, guid: acb6dd1c69a529344926642992e676db, type: 3}
