%YAML 1.1
%TAG !u! tag:unity3d.com,2011:
--- !u!114 &11400000
MonoBehaviour:
  m_ObjectHideFlags: 0
  m_CorrespondingSourceObject: {fileID: 0}
  m_PrefabInstance: {fileID: 0}
  m_PrefabAsset: {fileID: 0}
  m_GameObject: {fileID: 0}
  m_Enabled: 1
  m_EditorHideFlags: 0
  m_Script: {fileID: 11500000, guid: 67c968e54bb9bdf4b8280367cdf38ed5, type: 3}
  m_Name: Eventbooth Tent
  m_EditorClassIdentifier: 
  name: Eventbooth  Tent
  description: tent top only
  category: Furniture
  dimensions: Tent Only
  icon: {fileID: 21300000, guid: 6c4b92e285a25e446b655d847f565298, type: 3}
  prefab: {fileID: 8648520974654232585, guid: c69b42102b4a76e4a994691d5a00e792, type: 3}
