%YAML 1.1
%TAG !u! tag:unity3d.com,2011:
--- !u!114 &11400000
MonoBehaviour:
  m_ObjectHideFlags: 0
  m_CorrespondingSourceObject: {fileID: 0}
  m_PrefabInstance: {fileID: 0}
  m_PrefabAsset: {fileID: 0}
  m_GameObject: {fileID: 0}
  m_Enabled: 1
  m_EditorHideFlags: 0
  m_Script: {fileID: 11500000, guid: 67c968e54bb9bdf4b8280367cdf38ed5, type: 3}
  m_Name: New Inventory Item
  m_EditorClassIdentifier: 
  name: 
  description: 
  category: 
  dimensions: 
  icon: {fileID: 0}
  prefab: {fileID: 0}
