%YAML 1.1
%TAG !u! tag:unity3d.com,2011:
--- !u!1001 &2051788296859206598
PrefabInstance:
  m_ObjectHideFlags: 0
  serializedVersion: 2
  m_Modification:
    m_TransformParent: {fileID: 0}
    m_Modifications:
    - target: {fileID: 3081686582701709619, guid: 8d178ff7345621041ba70af945bc45ec,
        type: 3}
      propertyPath: m_Name
      value: Office Chair
      objectReference: {fileID: 0}
    - target: {fileID: 2216529678275549598, guid: 8d178ff7345621041ba70af945bc45ec,
        type: 3}
      propertyPath: m_LocalPosition.x
      value: 8.868763
      objectReference: {fileID: 0}
    - target: {fileID: 2216529678275549598, guid: 8d178ff7345621041ba70af945bc45ec,
        type: 3}
      propertyPath: m_LocalPosition.y
      value: 3.3975198
      objectReference: {fileID: 0}
    - target: {fileID: 2216529678275549598, guid: 8d178ff7345621041ba70af945bc45ec,
        type: 3}
      propertyPath: m_LocalPosition.z
      value: 25.559797
      objectReference: {fileID: 0}
    - target: {fileID: 2216529678275549598, guid: 8d178ff7345621041ba70af945bc45ec,
        type: 3}
      propertyPath: m_LocalRotation.x
      value: 0
      objectReference: {fileID: 0}
    - target: {fileID: 2216529678275549598, guid: 8d178ff7345621041ba70af945bc45ec,
        type: 3}
      propertyPath: m_LocalRotation.y
      value: 0
      objectReference: {fileID: 0}
    - target: {fileID: 2216529678275549598, guid: 8d178ff7345621041ba70af945bc45ec,
        type: 3}
      propertyPath: m_LocalRotation.z
      value: 0
      objectReference: {fileID: 0}
    - target: {fileID: 2216529678275549598, guid: 8d178ff7345621041ba70af945bc45ec,
        type: 3}
      propertyPath: m_LocalRotation.w
      value: 1
      objectReference: {fileID: 0}
    - target: {fileID: 2216529678275549598, guid: 8d178ff7345621041ba70af945bc45ec,
        type: 3}
      propertyPath: m_RootOrder
      value: 0
      objectReference: {fileID: 0}
    - target: {fileID: 2216529678275549598, guid: 8d178ff7345621041ba70af945bc45ec,
        type: 3}
      propertyPath: m_LocalEulerAnglesHint.x
      value: 0
      objectReference: {fileID: 0}
    - target: {fileID: 2216529678275549598, guid: 8d178ff7345621041ba70af945bc45ec,
        type: 3}
      propertyPath: m_LocalEulerAnglesHint.y
      value: 0
      objectReference: {fileID: 0}
    - target: {fileID: 2216529678275549598, guid: 8d178ff7345621041ba70af945bc45ec,
        type: 3}
      propertyPath: m_LocalEulerAnglesHint.z
      value: 0
      objectReference: {fileID: 0}
    - target: {fileID: 9146516279665302844, guid: 8d178ff7345621041ba70af945bc45ec,
        type: 3}
      propertyPath: m_Materials.Array.data[0]
      value: 
      objectReference: {fileID: 2100000, guid: 908f1faec770cff4cb8c3166d569a5da, type: 2}
    m_RemovedComponents: []
  m_SourcePrefab: {fileID: 100100000, guid: 8d178ff7345621041ba70af945bc45ec, type: 3}
