%YAML 1.1
%TAG !u! tag:unity3d.com,2011:
--- !u!1 &5633863755038182360
GameObject:
  m_ObjectHideFlags: 0
  m_CorrespondingSourceObject: {fileID: 0}
  m_PrefabInstance: {fileID: 0}
  m_PrefabAsset: {fileID: 0}
  serializedVersion: 6
  m_Component:
  - component: {fileID: 346595593247102451}
  - component: {fileID: 2201061330857105709}
  m_Layer: 17
  m_Name: Prof Desk
  m_TagString: Untagged
  m_Icon: {fileID: 0}
  m_NavMeshLayer: 0
  m_StaticEditorFlags: 0
  m_IsActive: 1
--- !u!4 &346595593247102451
Transform:
  m_ObjectHideFlags: 0
  m_CorrespondingSourceObject: {fileID: 0}
  m_PrefabInstance: {fileID: 0}
  m_PrefabAsset: {fileID: 0}
  m_GameObject: {fileID: 5633863755038182360}
  m_LocalRotation: {x: -0, y: -0, z: -0, w: 1}
  m_LocalPosition: {x: 36.401, y: -0.1828, z: 2.3022}
  m_LocalScale: {x: 1, y: 0.54042, z: 1}
  m_Children:
  - {fileID: 5594552673847524112}
  m_Father: {fileID: 0}
  m_RootOrder: 0
  m_LocalEulerAnglesHint: {x: 0, y: 0, z: 0}
--- !u!65 &2201061330857105709
BoxCollider:
  m_ObjectHideFlags: 0
  m_CorrespondingSourceObject: {fileID: 0}
  m_PrefabInstance: {fileID: 0}
  m_PrefabAsset: {fileID: 0}
  m_GameObject: {fileID: 5633863755038182360}
  m_Material: {fileID: 0}
  m_IsTrigger: 0
  m_Enabled: 1
  serializedVersion: 2
  m_Size: {x: 1.5009918, y: 1.2272142, z: 0.8231791}
  m_Center: {x: -0.71710587, y: 0.5953057, z: -0.46660966}
--- !u!1001 &5594552673847386512
PrefabInstance:
  m_ObjectHideFlags: 0
  serializedVersion: 2
  m_Modification:
    m_TransformParent: {fileID: 346595593247102451}
    m_Modifications:
    - target: {fileID: 100000, guid: b3cc6c6310b0f274a98e6d5877cdc179, type: 3}
      propertyPath: m_Name
      value: table
      objectReference: {fileID: 0}
    - target: {fileID: 100000, guid: b3cc6c6310b0f274a98e6d5877cdc179, type: 3}
      propertyPath: m_Layer
      value: 10
      objectReference: {fileID: 0}
    - target: {fileID: 400000, guid: b3cc6c6310b0f274a98e6d5877cdc179, type: 3}
      propertyPath: m_LocalPosition.x
      value: -0.24300003
      objectReference: {fileID: 0}
    - target: {fileID: 400000, guid: b3cc6c6310b0f274a98e6d5877cdc179, type: 3}
      propertyPath: m_LocalPosition.y
      value: 0.94334024
      objectReference: {fileID: 0}
    - target: {fileID: 400000, guid: b3cc6c6310b0f274a98e6d5877cdc179, type: 3}
      propertyPath: m_LocalPosition.z
      value: -0.85652
      objectReference: {fileID: 0}
    - target: {fileID: 400000, guid: b3cc6c6310b0f274a98e6d5877cdc179, type: 3}
      propertyPath: m_LocalRotation.x
      value: -0
      objectReference: {fileID: 0}
    - target: {fileID: 400000, guid: b3cc6c6310b0f274a98e6d5877cdc179, type: 3}
      propertyPath: m_LocalRotation.y
      value: -0
      objectReference: {fileID: 0}
    - target: {fileID: 400000, guid: b3cc6c6310b0f274a98e6d5877cdc179, type: 3}
      propertyPath: m_LocalRotation.z
      value: -0
      objectReference: {fileID: 0}
    - target: {fileID: 400000, guid: b3cc6c6310b0f274a98e6d5877cdc179, type: 3}
      propertyPath: m_LocalRotation.w
      value: 1
      objectReference: {fileID: 0}
    - target: {fileID: 400000, guid: b3cc6c6310b0f274a98e6d5877cdc179, type: 3}
      propertyPath: m_RootOrder
      value: 0
      objectReference: {fileID: 0}
    - target: {fileID: 400000, guid: b3cc6c6310b0f274a98e6d5877cdc179, type: 3}
      propertyPath: m_LocalEulerAnglesHint.x
      value: 0
      objectReference: {fileID: 0}
    - target: {fileID: 400000, guid: b3cc6c6310b0f274a98e6d5877cdc179, type: 3}
      propertyPath: m_LocalEulerAnglesHint.y
      value: 0
      objectReference: {fileID: 0}
    - target: {fileID: 400000, guid: b3cc6c6310b0f274a98e6d5877cdc179, type: 3}
      propertyPath: m_LocalEulerAnglesHint.z
      value: 0
      objectReference: {fileID: 0}
    - target: {fileID: 400000, guid: b3cc6c6310b0f274a98e6d5877cdc179, type: 3}
      propertyPath: m_LocalScale.y
      value: 1
      objectReference: {fileID: 0}
    - target: {fileID: 400000, guid: b3cc6c6310b0f274a98e6d5877cdc179, type: 3}
      propertyPath: m_LocalScale.z
      value: 0.81215
      objectReference: {fileID: 0}
    m_RemovedComponents: []
  m_SourcePrefab: {fileID: 100100000, guid: b3cc6c6310b0f274a98e6d5877cdc179, type: 3}
--- !u!4 &5594552673847524112 stripped
Transform:
  m_CorrespondingSourceObject: {fileID: 400000, guid: b3cc6c6310b0f274a98e6d5877cdc179,
    type: 3}
  m_PrefabInstance: {fileID: 5594552673847386512}
  m_PrefabAsset: {fileID: 0}
