%YAML 1.1
%TAG !u! tag:unity3d.com,2011:
--- !u!1 &3525956978517414291
GameObject:
  m_ObjectHideFlags: 0
  m_CorrespondingSourceObject: {fileID: 0}
  m_PrefabInstance: {fileID: 0}
  m_PrefabAsset: {fileID: 0}
  serializedVersion: 6
  m_Component:
  - component: {fileID: 1318962000556324458}
  m_Layer: 0
  m_Name: Projector
  m_TagString: Untagged
  m_Icon: {fileID: 0}
  m_NavMeshLayer: 0
  m_StaticEditorFlags: 0
  m_IsActive: 1
--- !u!4 &1318962000556324458
Transform:
  m_ObjectHideFlags: 0
  m_CorrespondingSourceObject: {fileID: 0}
  m_PrefabInstance: {fileID: 0}
  m_PrefabAsset: {fileID: 0}
  m_GameObject: {fileID: 3525956978517414291}
  m_LocalRotation: {x: 0.13529164, y: 0.004724854, z: -0.0036925871, w: 0.99078774}
  m_LocalPosition: {x: 36.423, y: 0.3547, z: 2.144}
  m_LocalScale: {x: 1, y: 1, z: 1}
  m_Children:
  - {fileID: 741600749799613281}
  m_Father: {fileID: 0}
  m_RootOrder: 0
  m_LocalEulerAnglesHint: {x: 15.553, y: 0.497, z: -0.35900003}
--- !u!1001 &741600749800012257
PrefabInstance:
  m_ObjectHideFlags: 0
  serializedVersion: 2
  m_Modification:
    m_TransformParent: {fileID: 1318962000556324458}
    m_Modifications:
    - target: {fileID: 100000, guid: 7c63b33a4cce9414584b047e14c60331, type: 3}
      propertyPath: m_Name
      value: projector
      objectReference: {fileID: 0}
    - target: {fileID: 400000, guid: 7c63b33a4cce9414584b047e14c60331, type: 3}
      propertyPath: m_LocalPosition.x
      value: -0.120720536
      objectReference: {fileID: 0}
    - target: {fileID: 400000, guid: 7c63b33a4cce9414584b047e14c60331, type: 3}
      propertyPath: m_LocalPosition.y
      value: 0.18375374
      objectReference: {fileID: 0}
    - target: {fileID: 400000, guid: 7c63b33a4cce9414584b047e14c60331, type: 3}
      propertyPath: m_LocalPosition.z
      value: -0.5989495
      objectReference: {fileID: 0}
    - target: {fileID: 400000, guid: 7c63b33a4cce9414584b047e14c60331, type: 3}
      propertyPath: m_LocalRotation.x
      value: -0
      objectReference: {fileID: 0}
    - target: {fileID: 400000, guid: 7c63b33a4cce9414584b047e14c60331, type: 3}
      propertyPath: m_LocalRotation.y
      value: -0
      objectReference: {fileID: 0}
    - target: {fileID: 400000, guid: 7c63b33a4cce9414584b047e14c60331, type: 3}
      propertyPath: m_LocalRotation.z
      value: -0
      objectReference: {fileID: 0}
    - target: {fileID: 400000, guid: 7c63b33a4cce9414584b047e14c60331, type: 3}
      propertyPath: m_LocalRotation.w
      value: 1
      objectReference: {fileID: 0}
    - target: {fileID: 400000, guid: 7c63b33a4cce9414584b047e14c60331, type: 3}
      propertyPath: m_RootOrder
      value: 0
      objectReference: {fileID: 0}
    - target: {fileID: 400000, guid: 7c63b33a4cce9414584b047e14c60331, type: 3}
      propertyPath: m_LocalEulerAnglesHint.x
      value: 13.990001
      objectReference: {fileID: 0}
    - target: {fileID: 400000, guid: 7c63b33a4cce9414584b047e14c60331, type: 3}
      propertyPath: m_LocalEulerAnglesHint.y
      value: 4.4900002
      objectReference: {fileID: 0}
    - target: {fileID: 400000, guid: 7c63b33a4cce9414584b047e14c60331, type: 3}
      propertyPath: m_LocalEulerAnglesHint.z
      value: 0.712
      objectReference: {fileID: 0}
    - target: {fileID: 400000, guid: 7c63b33a4cce9414584b047e14c60331, type: 3}
      propertyPath: m_LocalScale.x
      value: 0.19706626
      objectReference: {fileID: 0}
    - target: {fileID: 400000, guid: 7c63b33a4cce9414584b047e14c60331, type: 3}
      propertyPath: m_LocalScale.y
      value: 0.19706623
      objectReference: {fileID: 0}
    - target: {fileID: 400000, guid: 7c63b33a4cce9414584b047e14c60331, type: 3}
      propertyPath: m_LocalScale.z
      value: 0.19706617
      objectReference: {fileID: 0}
    m_RemovedComponents: []
  m_SourcePrefab: {fileID: 100100000, guid: 7c63b33a4cce9414584b047e14c60331, type: 3}
--- !u!4 &741600749799613281 stripped
Transform:
  m_CorrespondingSourceObject: {fileID: 400000, guid: 7c63b33a4cce9414584b047e14c60331,
    type: 3}
  m_PrefabInstance: {fileID: 741600749800012257}
  m_PrefabAsset: {fileID: 0}
